<?xml version="1.0" encoding="utf-8"?>
<!-- Generator: Adobe Illustrator 23.0.4, SVG Export Plug-In . SVG Version: 6.00 Build 0)  -->
<svg version="1.0" id="Layer_1" xmlns="http://www.w3.org/2000/svg" xmlns:xlink="http://www.w3.org/1999/xlink" x="0px" y="0px"
	 viewBox="0 0 541 556.5" style="enable-background:new 0 0 541 556.5;" xml:space="preserve">
<style type="text/css">
	.st0{fill:none;stroke:#010101;stroke-linecap:round;stroke-linejoin:round;stroke-miterlimit:10;}
</style>
<rect x="252.1" y="69.8" class="st0" width="36" height="15.8"/>
<rect x="252.1" y="91.3" class="st0" width="36" height="15.8"/>
<rect x="336.6" y="83.1" transform="matrix(0.3987 -0.9171 0.9171 0.3987 114.4982 376.731)" class="st0" width="15.8" height="36"/>
<rect x="299.3" y="71.3" transform="matrix(0.1994 -0.9799 0.9799 0.1994 158.4139 372.537)" class="st0" width="15.8" height="36"/>
<rect x="306.1" y="47.5" transform="matrix(0.1994 -0.9799 0.9799 0.1994 187.2086 360.202)" class="st0" width="15.8" height="36"/>
<rect x="351.6" y="36.2" transform="matrix(0.3987 -0.9171 0.9171 0.3987 166.4965 362.2289)" class="st0" width="15.8" height="36"/>
<rect x="309.6" y="22.4" transform="matrix(0.1994 -0.9799 0.9799 0.1994 214.6508 343.4897)" class="st0" width="15.8" height="36"/>
<rect x="252.1" y="26.6" class="st0" width="36" height="15.8"/>
<rect x="252.1" y="48.2" class="st0" width="36" height="15.8"/>
<rect x="351.5" y="9.4" transform="matrix(0.3987 -0.9171 0.9171 0.3987 191.0181 346.0316)" class="st0" width="15.8" height="36"/>
<rect x="309.6" y="-4.3" transform="matrix(0.1994 -0.9799 0.9799 0.1994 240.7789 322.1344)" class="st0" width="15.8" height="36"/>
<rect x="252.1" y="5" class="st0" width="36" height="15.8"/>
<rect x="348" y="61.3" transform="matrix(0.3987 -0.9171 0.9171 0.3987 141.2948 374.0874)" class="st0" width="15.8" height="36"/>
<rect x="375.4" y="50.8" transform="matrix(0.5 -0.866 0.866 0.5 145.824 370.0486)" class="st0" width="36" height="15.8"/>
<rect x="406.3" y="68" transform="matrix(0.5972 -0.8021 0.8021 0.5972 97.8696 366.8362)" class="st0" width="15.8" height="36"/>
<rect x="426.4" y="52.3" transform="matrix(0.5972 -0.8021 0.8021 0.5972 118.5569 376.683)" class="st0" width="15.8" height="36"/>
<rect x="459.1" y="81.7" transform="matrix(0.7509 -0.6604 0.6604 0.7509 50.4581 333.2581)" class="st0" width="15.8" height="36"/>
<rect x="177.6" y="93.2" transform="matrix(0.9171 -0.3987 0.3987 0.9171 -24.0863 86.3606)" class="st0" width="36" height="15.8"/>
<rect x="214.9" y="81.4" transform="matrix(0.9799 -0.1994 0.1994 0.9799 -13.1309 48.2265)" class="st0" width="36" height="15.8"/>
<rect x="166.2" y="71.4" transform="matrix(0.9171 -0.3987 0.3987 0.9171 -16.3712 80.0077)" class="st0" width="36" height="15.8"/>
<rect x="208" y="57.6" transform="matrix(0.9799 -0.1994 0.1994 0.9799 -8.5337 46.3728)" class="st0" width="36" height="15.8"/>
<rect x="162.7" y="46.2" transform="matrix(0.9171 -0.3987 0.3987 0.9171 -6.6053 76.5216)" class="st0" width="36" height="15.8"/>
<rect x="204.5" y="32.5" transform="matrix(0.9799 -0.1994 0.1994 0.9799 -3.5928 45.1706)" class="st0" width="36" height="15.8"/>
<rect x="138.7" y="40.7" transform="matrix(0.866 -0.5 0.5 0.866 -9.6981 81.1919)" class="st0" width="15.8" height="36"/>
<rect x="107.9" y="78" transform="matrix(0.8021 -0.5972 0.5972 0.8021 -26.3832 92.1828)" class="st0" width="36" height="15.8"/>
<rect x="162.7" y="19.5" transform="matrix(0.9171 -0.3987 0.3987 0.9171 4.0386 74.3078)" class="st0" width="36" height="15.8"/>
<rect x="204.5" y="5.7" transform="matrix(0.9799 -0.1994 0.1994 0.9799 1.7487 44.6326)" class="st0" width="36" height="15.8"/>
<rect x="87.8" y="62.3" transform="matrix(0.8021 -0.5972 0.5972 0.8021 -21.0117 77.106)" class="st0" width="36" height="15.8"/>
<rect x="55.1" y="91.8" transform="matrix(0.6604 -0.7509 0.7509 0.6604 -50.0587 88.7282)" class="st0" width="36" height="15.8"/>
<rect x="290.2" y="214.2" class="st0" width="15.8" height="36"/>
<rect x="252.1" y="177.8" class="st0" width="36" height="15.8"/>
<rect x="252.1" y="156.1" class="st0" width="36" height="15.8"/>
<rect x="252.1" y="134.6" class="st0" width="36" height="15.8"/>
<rect x="252.1" y="113" class="st0" width="36" height="15.8"/>
<rect x="252.1" y="220.7" class="st0" width="36" height="15.8"/>
<rect x="305" y="136.5" transform="matrix(0.342 -0.9397 0.9397 0.342 60.7367 395.7036)" class="st0" width="15.8" height="36"/>
<rect x="366.2" y="194.1" transform="matrix(0.866 -0.5 0.5 0.866 -55.9507 215.4853)" class="st0" width="15.8" height="36"/>
<rect x="384.9" y="183.4" transform="matrix(0.866 -0.5 0.5 0.866 -48.0611 223.3853)" class="st0" width="15.8" height="36"/>
<rect x="403.7" y="172.5" transform="matrix(0.866 -0.5 0.5 0.866 -40.1164 231.3211)" class="st0" width="15.8" height="36"/>
<rect x="441" y="151" transform="matrix(0.866 -0.5 0.5 0.866 -24.3363 247.1209)" class="st0" width="15.8" height="36"/>
<rect x="422.4" y="161.7" transform="matrix(0.866 -0.5 0.5 0.866 -32.2268 239.2211)" class="st0" width="15.8" height="36"/>
<rect x="347.5" y="204.9" transform="matrix(0.866 -0.5 0.5 0.866 -63.84 207.5862)" class="st0" width="15.8" height="36"/>
<rect x="312.3" y="167.5" transform="matrix(0.5 -0.866 0.866 0.5 -0.5228 370.0061)" class="st0" width="15.8" height="36"/>
<rect x="302.1" y="105.4" transform="matrix(0.2588 -0.9659 0.9659 0.2588 110.5797 390.9122)" class="st0" width="15.8" height="36"/>
<rect x="342.7" y="158.3" transform="matrix(0.6428 -0.766 0.766 0.6428 -9.7848 331.5587)" class="st0" width="15.8" height="36"/>
<rect x="371.2" y="145.2" transform="matrix(0.7071 -0.7071 0.7071 0.7071 -4.3425 315.8552)" class="st0" width="15.8" height="36"/>
<rect x="459.7" y="140.1" transform="matrix(0.866 -0.5 0.5 0.866 -16.4018 255.011)" class="st0" width="15.8" height="36"/>
<rect x="339.2" y="120.7" transform="matrix(0.5 -0.866 0.866 0.5 53.4737 369.9483)" class="st0" width="15.8" height="36"/>
<rect x="373.1" y="104.2" transform="matrix(0.5948 -0.8039 0.8039 0.5948 56.1626 355.8157)" class="st0" width="15.8" height="36"/>
<rect x="401.9" y="130.6" transform="matrix(0.749 -0.6626 0.6626 0.749 4.3951 308.8632)" class="st0" width="15.8" height="36"/>
<rect x="478.5" y="129.3" transform="matrix(0.866 -0.5 0.5 0.866 -8.5023 262.9558)" class="st0" width="15.8" height="36"/>
<rect x="386.2" y="83.5" transform="matrix(0.5972 -0.8021 0.8021 0.5972 77.3301 356.9751)" class="st0" width="15.8" height="36"/>
<rect x="418.9" y="113" transform="matrix(0.7509 -0.6604 0.6604 0.7509 19.8381 314.5213)" class="st0" width="15.8" height="36"/>
<rect x="439" y="97.3" transform="matrix(0.7509 -0.6604 0.6604 0.7509 35.1786 323.8848)" class="st0" width="15.8" height="36"/>
<rect x="497.2" y="118.6" transform="matrix(0.866 -0.5 0.5 0.866 -0.6127 270.8558)" class="st0" width="15.8" height="36"/>
<rect x="289.9" y="286.2" transform="matrix(0.5 -0.866 0.866 0.5 -100.7782 413.7202)" class="st0" width="36" height="15.8"/>
<rect x="310.9" y="250" transform="matrix(0.5 -0.866 0.866 0.5 -72.7477 410.085)" class="st0" width="15.8" height="36"/>
<rect x="327" y="307.6" transform="matrix(0.5 -0.866 0.866 0.5 -100.7931 456.5175)" class="st0" width="36" height="15.8"/>
<rect x="345.5" y="318.5" transform="matrix(0.5 -0.866 0.866 0.5 -100.8754 478.0157)" class="st0" width="36" height="15.8"/>
<rect x="364.4" y="329.3" transform="matrix(0.5 -0.866 0.866 0.5 -100.832 499.7984)" class="st0" width="36" height="15.8"/>
<rect x="420.5" y="361.7" transform="matrix(0.5 -0.866 0.866 0.5 -100.837 564.5104)" class="st0" width="36" height="15.8"/>
<rect x="401.7" y="350.9" transform="matrix(0.5 -0.866 0.866 0.5 -100.8714 542.8526)" class="st0" width="36" height="15.8"/>
<rect x="383.1" y="340" transform="matrix(0.5 -0.866 0.866 0.5 -100.7763 521.3762)" class="st0" width="36" height="15.8"/>
<rect x="476.6" y="394.1" transform="matrix(0.5 -0.866 0.866 0.5 -100.8331 629.3472)" class="st0" width="36" height="15.8"/>
<rect x="234" y="214.2" class="st0" width="15.8" height="36"/>
<rect x="147.9" y="204.3" transform="matrix(0.5 -0.866 0.866 0.5 -100.8136 249.8064)" class="st0" width="36" height="15.8"/>
<rect x="129.1" y="193.4" transform="matrix(0.5 -0.866 0.866 0.5 -100.8018 228.0688)" class="st0" width="36" height="15.8"/>
<rect x="110.5" y="182.6" transform="matrix(0.5 -0.866 0.866 0.5 -100.7527 206.5128)" class="st0" width="36" height="15.8"/>
<rect x="91.8" y="171.9" transform="matrix(0.5 -0.866 0.866 0.5 -100.8085 184.9348)" class="st0" width="36" height="15.8"/>
<rect x="166.6" y="215" transform="matrix(0.5 -0.866 0.866 0.5 -100.7706 271.3625)" class="st0" width="36" height="15.8"/>
<rect x="35.7" y="139.3" transform="matrix(0.5 -0.866 0.866 0.5 -100.6657 120.1433)" class="st0" width="36" height="15.8"/>
<rect x="16.8" y="128.6" transform="matrix(0.5 -0.866 0.866 0.5 -100.8468 98.4402)" class="st0" width="36" height="15.8"/>
<rect x="224.3" y="276.1" transform="matrix(0.866 -0.5 0.5 0.866 -115.9326 155.4884)" class="st0" width="15.8" height="36"/>
<rect x="203.3" y="260.1" transform="matrix(0.866 -0.5 0.5 0.866 -104.3458 146.5374)" class="st0" width="36" height="15.8"/>
<rect x="187.2" y="297.5" transform="matrix(0.866 -0.5 0.5 0.866 -131.629 139.812)" class="st0" width="15.8" height="36"/>
<rect x="168.5" y="308.4" transform="matrix(0.866 -0.5 0.5 0.866 -139.5643 131.9222)" class="st0" width="15.8" height="36"/>
<rect x="149.8" y="319.2" transform="matrix(0.866 -0.5 0.5 0.866 -147.454 124.0222)" class="st0" width="15.8" height="36"/>
<rect x="93.6" y="351.6" transform="matrix(0.866 -0.5 0.5 0.866 -171.1787 100.2866)" class="st0" width="15.8" height="36"/>
<rect x="112.3" y="340.7" transform="matrix(0.866 -0.5 0.5 0.866 -163.2431 108.1773)" class="st0" width="15.8" height="36"/>
<rect x="131" y="329.9" transform="matrix(0.866 -0.5 0.5 0.866 -155.3535 116.0773)" class="st0" width="15.8" height="36"/>
<rect x="37.5" y="384" transform="matrix(0.866 -0.5 0.5 0.866 -194.9024 76.5516)" class="st0" width="15.8" height="36"/>
<rect x="231.3" y="308.7" transform="matrix(0.866 -0.5 0.5 0.866 -124.8867 167.0884)" class="st0" width="36" height="15.8"/>
<rect x="252.1" y="384.6" class="st0" width="36" height="15.8"/>
<rect x="252.1" y="406.2" class="st0" width="36" height="15.8"/>
<rect x="252.1" y="427.8" class="st0" width="36" height="15.8"/>
<rect x="252.1" y="449.4" class="st0" width="36" height="15.8"/>
<rect x="252.1" y="363" class="st0" width="36" height="15.8"/>
<rect x="252.1" y="514.1" class="st0" width="36" height="15.8"/>
<rect x="252.1" y="535.8" class="st0" width="36" height="15.8"/>
<rect x="282.8" y="298.6" transform="matrix(0.5 -0.866 0.866 0.5 -128.8516 410.0844)" class="st0" width="15.8" height="36"/>
<rect x="375.6" y="286" transform="matrix(0.1736 -0.9848 0.9848 0.1736 35.7318 630.506)" class="st0" width="36" height="15.8"/>
<rect x="362.3" y="254.3" class="st0" width="15.8" height="36"/>
<rect x="401" y="304.3" transform="matrix(0.2588 -0.9659 0.9659 0.2588 8.9517 636.196)" class="st0" width="36" height="15.8"/>
<rect x="385.6" y="232.5" transform="matrix(0.9848 -0.1736 0.1736 0.9848 -37.518 72.1238)" class="st0" width="15.8" height="36"/>
<rect x="416.4" y="254.3" class="st0" width="15.8" height="36"/>
<rect x="411.1" y="214.3" transform="matrix(0.9659 -0.2588 0.2588 0.9659 -45.8455 116.3639)" class="st0" width="15.8" height="36"/>
<rect x="447.6" y="233.2" transform="matrix(0.9936 -0.1132 0.1132 0.9936 -25.5062 53.177)" class="st0" width="15.8" height="36"/>
<rect x="439.1" y="195.1" transform="matrix(0.9483 -0.3173 0.3173 0.9483 -44.507 152.8535)" class="st0" width="15.8" height="36"/>
<rect x="437.6" y="285.4" transform="matrix(0.1132 -0.9936 0.9936 0.1132 112.5637 712.7319)" class="st0" width="36" height="15.8"/>
<rect x="429.1" y="323.6" transform="matrix(0.3173 -0.9483 0.9483 0.3173 -9.1108 650.2969)" class="st0" width="36" height="15.8"/>
<rect x="462.1" y="286.4" transform="matrix(0.1132 -0.9936 0.9936 0.1132 133.2922 738.0589)" class="st0" width="36" height="15.8"/>
<rect x="453" y="329.7" transform="matrix(0.3173 -0.9483 0.9483 0.3173 1.397 677.0782)" class="st0" width="36" height="15.8"/>
<rect x="485.7" y="295.8" transform="matrix(0.1132 -0.9936 0.9936 0.1132 144.8944 769.7292)" class="st0" width="36" height="15.8"/>
<rect x="476.6" y="339.1" transform="matrix(0.3173 -0.9483 0.9483 0.3173 8.5349 705.9564)" class="st0" width="36" height="15.8"/>
<rect x="498.7" y="264.3" class="st0" width="36" height="15.8"/>
<rect x="472.1" y="232.3" transform="matrix(0.9932 -0.1161 0.1161 0.9932 -25.8095 57.4188)" class="st0" width="15.8" height="36"/>
<rect x="463" y="189.1" transform="matrix(0.9474 -0.3201 0.3201 0.9474 -41.5141 161.6225)" class="st0" width="15.8" height="36"/>
<rect x="495.6" y="222.6" transform="matrix(0.9932 -0.1161 0.1161 0.9932 -24.5279 60.0895)" class="st0" width="15.8" height="36"/>
<rect x="486.5" y="179.5" transform="matrix(0.9474 -0.3201 0.3201 0.9474 -37.2096 168.6622)" class="st0" width="15.8" height="36"/>
<rect x="508.8" y="309.3" transform="matrix(0.1132 -0.9936 0.9936 0.1132 151.9927 804.7079)" class="st0" width="36" height="15.8"/>
<rect x="499.7" y="352.5" transform="matrix(0.3173 -0.9483 0.9483 0.3173 11.6604 737.0444)" class="st0" width="36" height="15.8"/>
<rect x="519.2" y="213" transform="matrix(0.9932 -0.1161 0.1161 0.9932 -23.2571 62.7608)" class="st0" width="15.8" height="36"/>
<rect x="510.1" y="169.9" transform="matrix(0.9474 -0.3201 0.3201 0.9474 -32.9051 175.7019)" class="st0" width="15.8" height="36"/>
<rect x="209.2" y="146.5" transform="matrix(0.9397 -0.342 0.342 0.9397 -39.103 86.997)" class="st0" width="36" height="15.8"/>
<rect x="201.9" y="177.5" transform="matrix(0.866 -0.5 0.5 0.866 -63.2443 134.7852)" class="st0" width="36" height="15.8"/>
<rect x="212.1" y="115.4" transform="matrix(0.9659 -0.2588 0.2588 0.9659 -24.0633 63.7504)" class="st0" width="36" height="15.8"/>
<rect x="171.4" y="168.2" transform="matrix(0.766 -0.6428 0.6428 0.766 -68.8865 162.9681)" class="st0" width="36" height="15.8"/>
<rect x="174.9" y="130.7" transform="matrix(0.866 -0.5 0.5 0.866 -43.477 115.0333)" class="st0" width="36" height="15.8"/>
<rect x="143" y="155.3" transform="matrix(0.7071 -0.7071 0.7071 0.7071 -68.2691 161.6255)" class="st0" width="36" height="15.8"/>
<rect x="141" y="114.3" transform="matrix(0.8039 -0.5948 0.5948 0.8039 -41.5318 118.5709)" class="st0" width="36" height="15.8"/>
<rect x="112.2" y="140.7" transform="matrix(0.6626 -0.749 0.749 0.6626 -67.3396 147.6648)" class="st0" width="36" height="15.8"/>
<rect x="128" y="93.5" transform="matrix(0.8021 -0.5972 0.5972 0.8021 -31.6994 107.2504)" class="st0" width="36" height="15.8"/>
<rect x="95.3" y="123" transform="matrix(0.6604 -0.7509 0.7509 0.6604 -59.8403 129.5279)" class="st0" width="36" height="15.8"/>
<rect x="75.1" y="107.4" transform="matrix(0.6604 -0.7509 0.7509 0.6604 -54.9948 109.0898)" class="st0" width="36" height="15.8"/>
<rect x="181.5" y="350.3" transform="matrix(0.6428 -0.766 0.766 0.6428 -214.5123 276.6319)" class="st0" width="15.8" height="36"/>
<rect x="212" y="341.1" transform="matrix(0.5 -0.866 0.866 0.5 -200.9862 370.002)" class="st0" width="15.8" height="36"/>
<rect x="153" y="363.3" transform="matrix(0.7071 -0.7071 0.7071 0.7071 -222.5095 225.4752)" class="st0" width="15.8" height="36"/>
<rect x="219.3" y="372.2" transform="matrix(0.342 -0.9397 0.9397 0.342 -217.1359 470.2045)" class="st0" width="15.8" height="36"/>
<rect x="184.9" y="387.9" transform="matrix(0.5 -0.866 0.866 0.5 -255.1207 369.9126)" class="st0" width="15.8" height="36"/>
<rect x="222.1" y="403.3" transform="matrix(0.2588 -0.9659 0.9659 0.2588 -236.4814 534.4809)" class="st0" width="15.8" height="36"/>
<rect x="187.7" y="425.4" transform="matrix(0.3987 -0.9171 0.9171 0.3987 -288.9909 446.0368)" class="st0" width="15.8" height="36"/>
<rect x="224.8" y="437.3" transform="matrix(0.1994 -0.9799 0.9799 0.1994 -259.7626 592.5638)" class="st0" width="15.8" height="36"/>
<rect x="151.1" y="404.3" transform="matrix(0.5948 -0.8039 0.8039 0.5948 -275.0668 298.916)" class="st0" width="15.8" height="36"/>
<rect x="122.3" y="378" transform="matrix(0.749 -0.6626 0.6626 0.749 -229.6856 185.7106)" class="st0" width="15.8" height="36"/>
<rect x="138" y="425.1" transform="matrix(0.5948 -0.8039 0.8039 0.5948 -297.1012 296.8458)" class="st0" width="15.8" height="36"/>
<rect x="105.1" y="395.8" transform="matrix(0.749 -0.6626 0.6626 0.749 -245.7678 178.7699)" class="st0" width="15.8" height="36"/>
<rect x="118.1" y="440.8" transform="matrix(0.5948 -0.8039 0.8039 0.5948 -317.7544 287.1754)" class="st0" width="15.8" height="36"/>
<rect x="85.1" y="411.4" transform="matrix(0.749 -0.6626 0.6626 0.749 -261.1717 169.399)" class="st0" width="15.8" height="36"/>
<rect x="128.7" y="477.9" transform="matrix(0.5 -0.866 0.866 0.5 -347.3733 369.9512)" class="st0" width="36" height="15.8"/>
<rect x="176.2" y="447.1" transform="matrix(0.3961 -0.9182 0.9182 0.3961 -315.843 449.9075)" class="st0" width="15.8" height="36"/>
<rect x="218" y="460.8" transform="matrix(0.1965 -0.9805 0.9805 0.1965 -287.8828 606.2277)" class="st0" width="15.8" height="36"/>
<rect x="172.8" y="472.4" transform="matrix(0.3961 -0.9182 0.9182 0.3961 -341.11 462.0885)" class="st0" width="15.8" height="36"/>
<rect x="214.6" y="485.9" transform="matrix(0.1965 -0.9805 0.9805 0.1965 -315.2831 623.101)" class="st0" width="15.8" height="36"/>
<rect x="94.8" y="454.1" transform="matrix(0.5948 -0.8039 0.8039 0.5948 -337.913 273.9131)" class="st0" width="15.8" height="36"/>
<rect x="62" y="424.8" transform="matrix(0.749 -0.6626 0.6626 0.749 -275.8252 157.447)" class="st0" width="15.8" height="36"/>
<rect x="169.3" y="497.6" transform="matrix(0.3961 -0.9182 0.9182 0.3961 -366.3985 474.041)" class="st0" width="15.8" height="36"/>
<rect x="211.1" y="511.2" transform="matrix(0.1965 -0.9805 0.9805 0.1965 -342.8626 639.9105)" class="st0" width="15.8" height="36"/>
<rect x="332.7" y="360.4" transform="matrix(0.766 -0.6428 0.6428 0.766 -154.7071 311.6111)" class="st0" width="36" height="15.8"/>
<rect x="302.1" y="351.2" transform="matrix(0.866 -0.5 0.5 0.866 -136.6669 208.1797)" class="st0" width="36" height="15.8"/>
<rect x="361.1" y="373.5" transform="matrix(0.7071 -0.7071 0.7071 0.7071 -158.6491 379.7926)" class="st0" width="36" height="15.8"/>
<rect x="295" y="382.2" transform="matrix(0.9397 -0.342 0.342 0.9397 -114.5573 130.5552)" class="st0" width="36" height="15.8"/>
<rect x="329.2" y="398" transform="matrix(0.866 -0.5 0.5 0.866 -156.4252 227.9767)" class="st0" width="36" height="15.8"/>
<rect x="291.9" y="413.3" transform="matrix(0.9659 -0.2588 0.2588 0.9659 -98.4621 94.5581)" class="st0" width="36" height="15.8"/>
<rect x="326.4" y="435.5" transform="matrix(0.9171 -0.3987 0.3987 0.9171 -148.2403 174.0956)" class="st0" width="36" height="15.8"/>
<rect x="289.2" y="447.2" transform="matrix(0.9799 -0.1994 0.1994 0.9799 -84.5832 70.4046)" class="st0" width="36" height="15.8"/>
<rect x="363.1" y="414.5" transform="matrix(0.8039 -0.5948 0.5948 0.8039 -176.4842 309.495)" class="st0" width="36" height="15.8"/>
<rect x="391.9" y="388.1" transform="matrix(0.6626 -0.749 0.749 0.6626 -158.2719 440.6065)" class="st0" width="36" height="15.8"/>
<rect x="376.2" y="435.3" transform="matrix(0.8039 -0.5948 0.5948 0.8039 -186.2924 321.3483)" class="st0" width="36" height="15.8"/>
<rect x="409" y="405.8" transform="matrix(0.6626 -0.749 0.749 0.6626 -165.7804 459.4327)" class="st0" width="36" height="15.8"/>
<rect x="396.2" y="450.9" transform="matrix(0.8039 -0.5948 0.5948 0.8039 -191.6638 336.3552)" class="st0" width="36" height="15.8"/>
<rect x="429.1" y="421.5" transform="matrix(0.6626 -0.749 0.749 0.6626 -170.7349 479.7419)" class="st0" width="36" height="15.8"/>
<rect x="385.3" y="467.8" transform="matrix(0.866 -0.5 0.5 0.866 -190.2256 261.7277)" class="st0" width="15.8" height="36"/>
<rect x="337.9" y="457.2" transform="matrix(0.9182 -0.3961 0.3961 0.9182 -155.1023 179.0288)" class="st0" width="36" height="15.8"/>
<rect x="296.1" y="470.8" transform="matrix(0.9805 -0.1965 0.1965 0.9805 -87.9413 71.0449)" class="st0" width="36" height="15.8"/>
<rect x="341.4" y="482.4" transform="matrix(0.9182 -0.3961 0.3961 0.9182 -164.8074 182.4771)" class="st0" width="36" height="15.8"/>
<rect x="299.6" y="496" transform="matrix(0.9805 -0.1965 0.1965 0.9805 -92.8294 72.224)" class="st0" width="36" height="15.8"/>
<rect x="419.4" y="464.3" transform="matrix(0.8039 -0.5948 0.5948 0.8039 -195.0589 352.773)" class="st0" width="36" height="15.8"/>
<rect x="452.2" y="434.8" transform="matrix(0.6626 -0.749 0.749 0.6626 -172.9213 501.5504)" class="st0" width="36" height="15.8"/>
<rect x="344.8" y="507.6" transform="matrix(0.9182 -0.3961 0.3961 0.9182 -174.5191 185.8893)" class="st0" width="36" height="15.8"/>
<rect x="303" y="521.2" transform="matrix(0.9805 -0.1965 0.1965 0.9805 -97.7193 73.3851)" class="st0" width="36" height="15.8"/>
<rect x="138.6" y="276.1" transform="matrix(0.9848 -0.1736 0.1736 0.9848 -48.8285 29.8925)" class="st0" width="15.8" height="36"/>
<rect x="161.8" y="254.3" class="st0" width="15.8" height="36"/>
<rect x="113.1" y="294.2" transform="matrix(0.9659 -0.2588 0.2588 0.9659 -76.6769 41.9682)" class="st0" width="15.8" height="36"/>
<rect x="128.5" y="242.6" transform="matrix(0.1736 -0.9848 0.9848 0.1736 -125.6409 351.3431)" class="st0" width="36" height="15.8"/>
<rect x="107.9" y="254.3" class="st0" width="15.8" height="36"/>
<rect x="103.1" y="224.5" transform="matrix(0.2588 -0.9659 0.9659 0.2588 -134.7915 289.2259)" class="st0" width="36" height="15.8"/>
<rect x="66.7" y="243.3" transform="matrix(0.1132 -0.9936 0.9936 0.1132 -174.4812 306.8802)" class="st0" width="36" height="15.8"/>
<rect x="75" y="205" transform="matrix(0.3173 -0.9483 0.9483 0.3173 -138.4705 233.5339)" class="st0" width="36" height="15.8"/>
<rect x="76.7" y="275.4" transform="matrix(0.9936 -0.1132 0.1132 0.9936 -32.6732 11.4638)" class="st0" width="15.8" height="36"/>
<rect x="85.2" y="313.5" transform="matrix(0.9483 -0.3173 0.3173 0.9483 -100.3611 46.662)" class="st0" width="15.8" height="36"/>
<rect x="52.1" y="276.4" transform="matrix(0.9936 -0.1132 0.1132 0.9936 -32.9354 8.6874)" class="st0" width="15.8" height="36"/>
<rect x="61.1" y="319.4" transform="matrix(0.9483 -0.3173 0.3173 0.9483 -103.5013 39.3476)" class="st0" width="15.8" height="36"/>
<rect x="28.5" y="285.9" transform="matrix(0.9936 -0.1132 0.1132 0.9936 -34.1706 6.0812)" class="st0" width="15.8" height="36"/>
<rect x="37.6" y="329" transform="matrix(0.9483 -0.3173 0.3173 0.9483 -107.7567 32.3646)" class="st0" width="15.8" height="36"/>
<rect x="5.4" y="264.3" class="st0" width="36" height="15.8"/>
<rect x="42" y="242.3" transform="matrix(0.1161 -0.9932 0.9932 0.1161 -195.5398 280.7347)" class="st0" width="36" height="15.8"/>
<rect x="51.2" y="199.4" transform="matrix(0.3201 -0.9474 0.9474 0.3201 -149.3134 206.4897)" class="st0" width="36" height="15.8"/>
<rect x="18.4" y="232.8" transform="matrix(0.1161 -0.9932 0.9932 0.1161 -206.898 248.9197)" class="st0" width="36" height="15.8"/>
<rect x="27.8" y="189.6" transform="matrix(0.3201 -0.9474 0.9474 0.3201 -156.0017 177.6643)" class="st0" width="36" height="15.8"/>
<rect x="55.1" y="150" transform="matrix(0.5042 -0.8636 0.8636 0.5042 -100.186 141.4286)" class="st0" width="36" height="15.8"/>
<rect x="73.8" y="160.9" transform="matrix(0.5042 -0.8636 0.8636 0.5042 -100.2958 162.9781)" class="st0" width="36" height="15.8"/>
<rect x="55.7" y="373" transform="matrix(0.8685 -0.4958 0.4958 0.8685 -185.4935 82.9812)" class="st0" width="15.8" height="36"/>
<rect x="74.5" y="362.3" transform="matrix(0.8685 -0.4958 0.4958 0.8685 -177.6848 90.8766)" class="st0" width="15.8" height="36"/>
<rect x="458.1" y="384" transform="matrix(0.5006 -0.8657 0.8657 0.5006 -101.483 607.8651)" class="st0" width="36" height="15.8"/>
<rect x="439.4" y="373.2" transform="matrix(0.5006 -0.8657 0.8657 0.5006 -101.5444 586.2988)" class="st0" width="36" height="15.8"/>
<rect x="252.1" y="199.2" class="st0" width="36" height="15.8"/>
<rect x="243" y="265.3" transform="matrix(0.866 -0.5 0.5 0.866 -108.034 163.4335)" class="st0" width="15.8" height="36"/>
<rect x="205.8" y="286.7" transform="matrix(0.866 -0.5 0.5 0.866 -123.7073 147.6556)" class="st0" width="15.8" height="36"/>
<rect x="271.1" y="275.5" transform="matrix(0.5 -0.866 0.866 0.5 -100.9136 392.1208)" class="st0" width="36" height="15.8"/>
<rect x="336.4" y="237.3" transform="matrix(0.9416 -0.3368 0.3368 0.9416 -65.88 130.8781)" class="st0" width="15.8" height="36"/>
<rect x="313.3" y="198.2" transform="matrix(0.7633 -0.6461 0.6461 0.7633 -63.6571 258.7135)" class="st0" width="15.8" height="36"/>
<rect x="201" y="208.3" transform="matrix(0.6369 -0.771 0.771 0.6369 -87.1555 247.307)" class="st0" width="36" height="15.8"/>
<rect x="275.1" y="336.8" transform="matrix(0.9852 -0.1713 0.1713 0.9852 -54.725 55.2988)" class="st0" width="36" height="15.8"/>
<rect x="239.1" y="326.7" transform="matrix(0.1722 -0.9851 0.9851 0.1722 -135.0585 528.7363)" class="st0" width="15.8" height="36"/>
<rect x="177.5" y="248.2" transform="matrix(0.3499 -0.9368 0.9368 0.3499 -112.8729 349.612)" class="st0" width="36" height="15.8"/>
<rect x="308.3" y="296.8" transform="matrix(0.5 -0.866 0.866 0.5 -100.7549 434.9728)" class="st0" width="36" height="15.8"/>
<rect x="252.1" y="242.3" class="st0" width="36" height="15.8"/>
<rect x="252.1" y="471.6" class="st0" width="36" height="15.8"/>
<rect x="252.1" y="493.2" class="st0" width="36" height="15.8"/>
<rect x="4.1" y="180.1" transform="matrix(0.3201 -0.9474 0.9474 0.3201 -163.091 148.8329)" class="st0" width="36" height="15.8"/>
<rect x="-5" y="223.2" transform="matrix(0.1161 -0.9932 0.9932 0.1161 -218.1133 217.1488)" class="st0" width="36" height="15.8"/>
<rect x="14.4" y="342.4" transform="matrix(0.9483 -0.3173 0.3173 0.9483 -113.1908 25.6939)" class="st0" width="15.8" height="36"/>
<rect x="5.3" y="299.3" transform="matrix(0.9936 -0.1132 0.1132 0.9936 -35.8307 3.541)" class="st0" width="15.8" height="36"/>
</svg>
